M117 Cancelling print job...
M84                 ; Disable motors
M117 Disabling heaters...
{% snippet 'disable_hotends' %}
{% snippet 'disable_bed' %}
M117 Disabling fans...
M106 S0
G1 Z+50 E-1.2 F4500 ; Raise Z and relieve filament pressure
