M117 Resuming print job...
M82                ; Absolute the Extruder
G90                ; Absolute the X,Y,Z coords
M117 Resetting extruder...
G92 E{{ pause_position.e }}
M117 Relocating to previous X,Y,Z...
G1 X{{ pause_position.x }} Y{{ pause_position.y }} Z{{ pause_position.z }} F4500
